---
http_interactions:
- request:
    method: get
    uri: https://api.pexels.com/v1/search?query=%20skyline
    body:
      encoding: US-ASCII
      string: ''
    headers:
      User-Agent:
      - Faraday v1.4.1
      Authorization:
      - SECURE
      Accept-Encoding:
      - gzip;q=1.0,deflate;q=0.6,identity;q=0.3
      Accept:
      - "*/*"
  response:
    status:
      code: 200
      message: OK
    headers:
      Date:
      - Fri, 14 May 2021 18:37:43 GMT
      Content-Type:
      - application/json; charset=utf-8
      Content-Length:
      - '2087'
      Connection:
      - keep-alive
      Alt-Svc:
      - h3-27=":443"; ma=86400, h3-28=":443"; ma=86400, h3-29=":443"; ma=86400
      Cache-Control:
      - max-age=0, private, must-revalidate
      Cf-Cache-Status:
      - DYNAMIC
      Cf-Request-Id:
      - 0a0dc4a1f20000c7d10fa26000000001
      Expect-Ct:
      - max-age=604800, report-uri="https://report-uri.cloudflare.com/cdn-cgi/beacon/expect-ct"
      Set-Cookie:
      - __cf_bm=06253d1d1531376a7e5c07701659e868d048e322-1621017463-1800-AWnMTtDyTh5z9P65JQ4aJ5RUEEzOw304u2SWD16rZXRFHIQBXKW7iX/ysKtVnP8mHWvySknQ+SxASdTuV1Hj9eU=;
        path=/; expires=Fri, 14-May-21 19:07:43 GMT; domain=.pexels.com; HttpOnly;
        Secure; SameSite=None
      - __cf_bm=955365822c036dfa28c797f7f47b0712f9e46ef4-1621017463-1800-AQK6dDqVZyy30uzxklmu5BUcI4OLHR+uEs1F5uw6JoOnuyEaiAHaK64zLtFrdbQ5aJ+4QSu3q2cLOKFF+Xwg830=;
        path=/; expires=Fri, 14-May-21 19:07:43 GMT; domain=.pexels.com; HttpOnly;
        Secure; SameSite=None
      Vary:
      - Origin
      X-Frame-Options:
      - ALLOWALL
      X-Ratelimit-Limit:
      - '20000'
      X-Ratelimit-Remaining:
      - '19899'
      X-Ratelimit-Reset:
      - '1621813704'
      X-Request-Id:
      - cac7d998-9959-4795-aeac-30da9563a6f5
      X-Runtime:
      - '0.135353'
      X-Server:
      - master
      Server:
      - cloudflare
      Cf-Ray:
      - 64f63d498b6ec7d1-DEN
    body:
      encoding: ASCII-8BIT
      string: '{"page":1,"per_page":15,"photos":[{"id":2423927,"width":6000,"height":3000,"url":"https://www.pexels.com/photo/ferry-boat-on-body-of-water-2423927/","photographer":"Ken
        Ozuna","photographer_url":"https://www.pexels.com/@kenozu","photographer_id":1271481,"avg_color":"#2E3C47","src":{"original":"https://images.pexels.com/photos/2423927/pexels-photo-2423927.jpeg","large2x":"https://images.pexels.com/photos/2423927/pexels-photo-2423927.jpeg?auto=compress\u0026cs=tinysrgb\u0026dpr=2\u0026h=650\u0026w=940","large":"https://images.pexels.com/photos/2423927/pexels-photo-2423927.jpeg?auto=compress\u0026cs=tinysrgb\u0026h=650\u0026w=940","medium":"https://images.pexels.com/photos/2423927/pexels-photo-2423927.jpeg?auto=compress\u0026cs=tinysrgb\u0026h=350","small":"https://images.pexels.com/photos/2423927/pexels-photo-2423927.jpeg?auto=compress\u0026cs=tinysrgb\u0026h=130","portrait":"https://images.pexels.com/photos/2423927/pexels-photo-2423927.jpeg?auto=compress\u0026cs=tinysrgb\u0026fit=crop\u0026h=1200\u0026w=800","landscape":"https://images.pexels.com/photos/2423927/pexels-photo-2423927.jpeg?auto=compress\u0026cs=tinysrgb\u0026fit=crop\u0026h=627\u0026w=1200","tiny":"https://images.pexels.com/photos/2423927/pexels-photo-2423927.jpeg?auto=compress\u0026cs=tinysrgb\u0026dpr=1\u0026fit=crop\u0026h=200\u0026w=280"},"liked":false},{"id":3052683,"width":5129,"height":2171,"url":"https://www.pexels.com/photo/modern-buildings-3052683/","photographer":"Scott
        Webb","photographer_url":"https://www.pexels.com/@scottwebb","photographer_id":39047,"avg_color":"#444849","src":{"original":"https://images.pexels.com/photos/3052683/pexels-photo-3052683.jpeg","large2x":"https://images.pexels.com/photos/3052683/pexels-photo-3052683.jpeg?auto=compress\u0026cs=tinysrgb\u0026dpr=2\u0026h=650\u0026w=940","large":"https://images.pexels.com/photos/3052683/pexels-photo-3052683.jpeg?auto=compress\u0026cs=tinysrgb\u0026h=650\u0026w=940","medium":"https://images.pexels.com/photos/3052683/pexels-photo-3052683.jpeg?auto=compress\u0026cs=tinysrgb\u0026h=350","small":"https://images.pexels.com/photos/3052683/pexels-photo-3052683.jpeg?auto=compress\u0026cs=tinysrgb\u0026h=130","portrait":"https://images.pexels.com/photos/3052683/pexels-photo-3052683.jpeg?auto=compress\u0026cs=tinysrgb\u0026fit=crop\u0026h=1200\u0026w=800","landscape":"https://images.pexels.com/photos/3052683/pexels-photo-3052683.jpeg?auto=compress\u0026cs=tinysrgb\u0026fit=crop\u0026h=627\u0026w=1200","tiny":"https://images.pexels.com/photos/3052683/pexels-photo-3052683.jpeg?auto=compress\u0026cs=tinysrgb\u0026dpr=1\u0026fit=crop\u0026h=200\u0026w=280"},"liked":false},{"id":5921872,"width":3340,"height":4175,"url":"https://www.pexels.com/photo/black-and-white-concrete-building-5921872/","photographer":"Josh
        Hild","photographer_url":"https://www.pexels.com/@josh-hild-1270765","photographer_id":1270765,"avg_color":"#3B4548","src":{"original":"https://images.pexels.com/photos/5921872/pexels-photo-5921872.jpeg","large2x":"https://images.pexels.com/photos/5921872/pexels-photo-5921872.jpeg?auto=compress\u0026cs=tinysrgb\u0026dpr=2\u0026h=650\u0026w=940","large":"https://images.pexels.com/photos/5921872/pexels-photo-5921872.jpeg?auto=compress\u0026cs=tinysrgb\u0026h=650\u0026w=940","medium":"https://images.pexels.com/photos/5921872/pexels-photo-5921872.jpeg?auto=compress\u0026cs=tinysrgb\u0026h=350","small":"https://images.pexels.com/photos/5921872/pexels-photo-5921872.jpeg?auto=compress\u0026cs=tinysrgb\u0026h=130","portrait":"https://images.pexels.com/photos/5921872/pexels-photo-5921872.jpeg?auto=compress\u0026cs=tinysrgb\u0026fit=crop\u0026h=1200\u0026w=800","landscape":"https://images.pexels.com/photos/5921872/pexels-photo-5921872.jpeg?auto=compress\u0026cs=tinysrgb\u0026fit=crop\u0026h=627\u0026w=1200","tiny":"https://images.pexels.com/photos/5921872/pexels-photo-5921872.jpeg?auto=compress\u0026cs=tinysrgb\u0026dpr=1\u0026fit=crop\u0026h=200\u0026w=280"},"liked":false},{"id":6398585,"width":8000,"height":6000,"url":"https://www.pexels.com/photo/city-dawn-sunset-water-6398585/","photographer":"Ollie
        Craig","photographer_url":"https://www.pexels.com/@olliecraig1","photographer_id":2821241,"avg_color":"#707478","src":{"original":"https://images.pexels.com/photos/6398585/pexels-photo-6398585.jpeg","large2x":"https://images.pexels.com/photos/6398585/pexels-photo-6398585.jpeg?auto=compress\u0026cs=tinysrgb\u0026dpr=2\u0026h=650\u0026w=940","large":"https://images.pexels.com/photos/6398585/pexels-photo-6398585.jpeg?auto=compress\u0026cs=tinysrgb\u0026h=650\u0026w=940","medium":"https://images.pexels.com/photos/6398585/pexels-photo-6398585.jpeg?auto=compress\u0026cs=tinysrgb\u0026h=350","small":"https://images.pexels.com/photos/6398585/pexels-photo-6398585.jpeg?auto=compress\u0026cs=tinysrgb\u0026h=130","portrait":"https://images.pexels.com/photos/6398585/pexels-photo-6398585.jpeg?auto=compress\u0026cs=tinysrgb\u0026fit=crop\u0026h=1200\u0026w=800","landscape":"https://images.pexels.com/photos/6398585/pexels-photo-6398585.jpeg?auto=compress\u0026cs=tinysrgb\u0026fit=crop\u0026h=627\u0026w=1200","tiny":"https://images.pexels.com/photos/6398585/pexels-photo-6398585.jpeg?auto=compress\u0026cs=tinysrgb\u0026dpr=1\u0026fit=crop\u0026h=200\u0026w=280"},"liked":false},{"id":4034345,"width":6017,"height":4011,"url":"https://www.pexels.com/photo/photo-of-city-during-night-4034345/","photographer":"Alvin
        Chin","photographer_url":"https://www.pexels.com/@alvin-chin-210139","photographer_id":210139,"avg_color":"#1C1917","src":{"original":"https://images.pexels.com/photos/4034345/pexels-photo-4034345.jpeg","large2x":"https://images.pexels.com/photos/4034345/pexels-photo-4034345.jpeg?auto=compress\u0026cs=tinysrgb\u0026dpr=2\u0026h=650\u0026w=940","large":"https://images.pexels.com/photos/4034345/pexels-photo-4034345.jpeg?auto=compress\u0026cs=tinysrgb\u0026h=650\u0026w=940","medium":"https://images.pexels.com/photos/4034345/pexels-photo-4034345.jpeg?auto=compress\u0026cs=tinysrgb\u0026h=350","small":"https://images.pexels.com/photos/4034345/pexels-photo-4034345.jpeg?auto=compress\u0026cs=tinysrgb\u0026h=130","portrait":"https://images.pexels.com/photos/4034345/pexels-photo-4034345.jpeg?auto=compress\u0026cs=tinysrgb\u0026fit=crop\u0026h=1200\u0026w=800","landscape":"https://images.pexels.com/photos/4034345/pexels-photo-4034345.jpeg?auto=compress\u0026cs=tinysrgb\u0026fit=crop\u0026h=627\u0026w=1200","tiny":"https://images.pexels.com/photos/4034345/pexels-photo-4034345.jpeg?auto=compress\u0026cs=tinysrgb\u0026dpr=1\u0026fit=crop\u0026h=200\u0026w=280"},"liked":false},{"id":4332187,"width":5297,"height":3528,"url":"https://www.pexels.com/photo/city-skyline-under-white-cloudy-sky-4332187/","photographer":"ArtHouse
        Studio","photographer_url":"https://www.pexels.com/@nick-bondarev","photographer_id":2766954,"avg_color":"#A7ADB2","src":{"original":"https://images.pexels.com/photos/4332187/pexels-photo-4332187.jpeg","large2x":"https://images.pexels.com/photos/4332187/pexels-photo-4332187.jpeg?auto=compress\u0026cs=tinysrgb\u0026dpr=2\u0026h=650\u0026w=940","large":"https://images.pexels.com/photos/4332187/pexels-photo-4332187.jpeg?auto=compress\u0026cs=tinysrgb\u0026h=650\u0026w=940","medium":"https://images.pexels.com/photos/4332187/pexels-photo-4332187.jpeg?auto=compress\u0026cs=tinysrgb\u0026h=350","small":"https://images.pexels.com/photos/4332187/pexels-photo-4332187.jpeg?auto=compress\u0026cs=tinysrgb\u0026h=130","portrait":"https://images.pexels.com/photos/4332187/pexels-photo-4332187.jpeg?auto=compress\u0026cs=tinysrgb\u0026fit=crop\u0026h=1200\u0026w=800","landscape":"https://images.pexels.com/photos/4332187/pexels-photo-4332187.jpeg?auto=compress\u0026cs=tinysrgb\u0026fit=crop\u0026h=627\u0026w=1200","tiny":"https://images.pexels.com/photos/4332187/pexels-photo-4332187.jpeg?auto=compress\u0026cs=tinysrgb\u0026dpr=1\u0026fit=crop\u0026h=200\u0026w=280"},"liked":false},{"id":6572442,"width":5277,"height":2965,"url":"https://www.pexels.com/photo/popular-majestic-skyscrapers-of-new-york-6572442/","photographer":"Kelly
        Lacy","photographer_url":"https://www.pexels.com/@kelly-lacy-1179532","photographer_id":1179532,"avg_color":"#787678","src":{"original":"https://images.pexels.com/photos/6572442/pexels-photo-6572442.jpeg","large2x":"https://images.pexels.com/photos/6572442/pexels-photo-6572442.jpeg?auto=compress\u0026cs=tinysrgb\u0026dpr=2\u0026h=650\u0026w=940","large":"https://images.pexels.com/photos/6572442/pexels-photo-6572442.jpeg?auto=compress\u0026cs=tinysrgb\u0026h=650\u0026w=940","medium":"https://images.pexels.com/photos/6572442/pexels-photo-6572442.jpeg?auto=compress\u0026cs=tinysrgb\u0026h=350","small":"https://images.pexels.com/photos/6572442/pexels-photo-6572442.jpeg?auto=compress\u0026cs=tinysrgb\u0026h=130","portrait":"https://images.pexels.com/photos/6572442/pexels-photo-6572442.jpeg?auto=compress\u0026cs=tinysrgb\u0026fit=crop\u0026h=1200\u0026w=800","landscape":"https://images.pexels.com/photos/6572442/pexels-photo-6572442.jpeg?auto=compress\u0026cs=tinysrgb\u0026fit=crop\u0026h=627\u0026w=1200","tiny":"https://images.pexels.com/photos/6572442/pexels-photo-6572442.jpeg?auto=compress\u0026cs=tinysrgb\u0026dpr=1\u0026fit=crop\u0026h=200\u0026w=280"},"liked":false},{"id":6572447,"width":5339,"height":3000,"url":"https://www.pexels.com/photo/modern-city-with-majestic-giant-skyscrapers-6572447/","photographer":"Kelly
        Lacy","photographer_url":"https://www.pexels.com/@kelly-lacy-1179532","photographer_id":1179532,"avg_color":"#82828A","src":{"original":"https://images.pexels.com/photos/6572447/pexels-photo-6572447.jpeg","large2x":"https://images.pexels.com/photos/6572447/pexels-photo-6572447.jpeg?auto=compress\u0026cs=tinysrgb\u0026dpr=2\u0026h=650\u0026w=940","large":"https://images.pexels.com/photos/6572447/pexels-photo-6572447.jpeg?auto=compress\u0026cs=tinysrgb\u0026h=650\u0026w=940","medium":"https://images.pexels.com/photos/6572447/pexels-photo-6572447.jpeg?auto=compress\u0026cs=tinysrgb\u0026h=350","small":"https://images.pexels.com/photos/6572447/pexels-photo-6572447.jpeg?auto=compress\u0026cs=tinysrgb\u0026h=130","portrait":"https://images.pexels.com/photos/6572447/pexels-photo-6572447.jpeg?auto=compress\u0026cs=tinysrgb\u0026fit=crop\u0026h=1200\u0026w=800","landscape":"https://images.pexels.com/photos/6572447/pexels-photo-6572447.jpeg?auto=compress\u0026cs=tinysrgb\u0026fit=crop\u0026h=627\u0026w=1200","tiny":"https://images.pexels.com/photos/6572447/pexels-photo-6572447.jpeg?auto=compress\u0026cs=tinysrgb\u0026dpr=1\u0026fit=crop\u0026h=200\u0026w=280"},"liked":false},{"id":6572456,"width":5464,"height":3070,"url":"https://www.pexels.com/photo/modern-architecture-of-new-york-under-tranquil-cloudy-sky-6572456/","photographer":"Kelly
        Lacy","photographer_url":"https://www.pexels.com/@kelly-lacy-1179532","photographer_id":1179532,"avg_color":"#8895A2","src":{"original":"https://images.pexels.com/photos/6572456/pexels-photo-6572456.jpeg","large2x":"https://images.pexels.com/photos/6572456/pexels-photo-6572456.jpeg?auto=compress\u0026cs=tinysrgb\u0026dpr=2\u0026h=650\u0026w=940","large":"https://images.pexels.com/photos/6572456/pexels-photo-6572456.jpeg?auto=compress\u0026cs=tinysrgb\u0026h=650\u0026w=940","medium":"https://images.pexels.com/photos/6572456/pexels-photo-6572456.jpeg?auto=compress\u0026cs=tinysrgb\u0026h=350","small":"https://images.pexels.com/photos/6572456/pexels-photo-6572456.jpeg?auto=compress\u0026cs=tinysrgb\u0026h=130","portrait":"https://images.pexels.com/photos/6572456/pexels-photo-6572456.jpeg?auto=compress\u0026cs=tinysrgb\u0026fit=crop\u0026h=1200\u0026w=800","landscape":"https://images.pexels.com/photos/6572456/pexels-photo-6572456.jpeg?auto=compress\u0026cs=tinysrgb\u0026fit=crop\u0026h=627\u0026w=1200","tiny":"https://images.pexels.com/photos/6572456/pexels-photo-6572456.jpeg?auto=compress\u0026cs=tinysrgb\u0026dpr=1\u0026fit=crop\u0026h=200\u0026w=280"},"liked":false},{"id":6295359,"width":4032,"height":3024,"url":"https://www.pexels.com/photo/city-sunset-skyline-building-6295359/","photographer":"Stuart
        Rankin","photographer_url":"https://www.pexels.com/@stuart-rankin-860153","photographer_id":860153,"avg_color":"#8A8A9D","src":{"original":"https://images.pexels.com/photos/6295359/pexels-photo-6295359.jpeg","large2x":"https://images.pexels.com/photos/6295359/pexels-photo-6295359.jpeg?auto=compress\u0026cs=tinysrgb\u0026dpr=2\u0026h=650\u0026w=940","large":"https://images.pexels.com/photos/6295359/pexels-photo-6295359.jpeg?auto=compress\u0026cs=tinysrgb\u0026h=650\u0026w=940","medium":"https://images.pexels.com/photos/6295359/pexels-photo-6295359.jpeg?auto=compress\u0026cs=tinysrgb\u0026h=350","small":"https://images.pexels.com/photos/6295359/pexels-photo-6295359.jpeg?auto=compress\u0026cs=tinysrgb\u0026h=130","portrait":"https://images.pexels.com/photos/6295359/pexels-photo-6295359.jpeg?auto=compress\u0026cs=tinysrgb\u0026fit=crop\u0026h=1200\u0026w=800","landscape":"https://images.pexels.com/photos/6295359/pexels-photo-6295359.jpeg?auto=compress\u0026cs=tinysrgb\u0026fit=crop\u0026h=627\u0026w=1200","tiny":"https://images.pexels.com/photos/6295359/pexels-photo-6295359.jpeg?auto=compress\u0026cs=tinysrgb\u0026dpr=1\u0026fit=crop\u0026h=200\u0026w=280"},"liked":false},{"id":6452099,"width":3633,"height":5449,"url":"https://www.pexels.com/photo/snow-light-city-road-6452099/","photographer":"Josh
        Hild","photographer_url":"https://www.pexels.com/@josh-hild-1270765","photographer_id":1270765,"avg_color":"#415565","src":{"original":"https://images.pexels.com/photos/6452099/pexels-photo-6452099.jpeg","large2x":"https://images.pexels.com/photos/6452099/pexels-photo-6452099.jpeg?auto=compress\u0026cs=tinysrgb\u0026dpr=2\u0026h=650\u0026w=940","large":"https://images.pexels.com/photos/6452099/pexels-photo-6452099.jpeg?auto=compress\u0026cs=tinysrgb\u0026h=650\u0026w=940","medium":"https://images.pexels.com/photos/6452099/pexels-photo-6452099.jpeg?auto=compress\u0026cs=tinysrgb\u0026h=350","small":"https://images.pexels.com/photos/6452099/pexels-photo-6452099.jpeg?auto=compress\u0026cs=tinysrgb\u0026h=130","portrait":"https://images.pexels.com/photos/6452099/pexels-photo-6452099.jpeg?auto=compress\u0026cs=tinysrgb\u0026fit=crop\u0026h=1200\u0026w=800","landscape":"https://images.pexels.com/photos/6452099/pexels-photo-6452099.jpeg?auto=compress\u0026cs=tinysrgb\u0026fit=crop\u0026h=627\u0026w=1200","tiny":"https://images.pexels.com/photos/6452099/pexels-photo-6452099.jpeg?auto=compress\u0026cs=tinysrgb\u0026dpr=1\u0026fit=crop\u0026h=200\u0026w=280"},"liked":false},{"id":6776454,"width":4480,"height":7964,"url":"https://www.pexels.com/photo/snow-city-clouds-skyline-6776454/","photographer":"Aleksandar
        Pasaric","photographer_url":"https://www.pexels.com/@apasaric","photographer_id":105079,"avg_color":"#ADB0C1","src":{"original":"https://images.pexels.com/photos/6776454/pexels-photo-6776454.jpeg","large2x":"https://images.pexels.com/photos/6776454/pexels-photo-6776454.jpeg?auto=compress\u0026cs=tinysrgb\u0026dpr=2\u0026h=650\u0026w=940","large":"https://images.pexels.com/photos/6776454/pexels-photo-6776454.jpeg?auto=compress\u0026cs=tinysrgb\u0026h=650\u0026w=940","medium":"https://images.pexels.com/photos/6776454/pexels-photo-6776454.jpeg?auto=compress\u0026cs=tinysrgb\u0026h=350","small":"https://images.pexels.com/photos/6776454/pexels-photo-6776454.jpeg?auto=compress\u0026cs=tinysrgb\u0026h=130","portrait":"https://images.pexels.com/photos/6776454/pexels-photo-6776454.jpeg?auto=compress\u0026cs=tinysrgb\u0026fit=crop\u0026h=1200\u0026w=800","landscape":"https://images.pexels.com/photos/6776454/pexels-photo-6776454.jpeg?auto=compress\u0026cs=tinysrgb\u0026fit=crop\u0026h=627\u0026w=1200","tiny":"https://images.pexels.com/photos/6776454/pexels-photo-6776454.jpeg?auto=compress\u0026cs=tinysrgb\u0026dpr=1\u0026fit=crop\u0026h=200\u0026w=280"},"liked":false},{"id":5939895,"width":4608,"height":3456,"url":"https://www.pexels.com/photo/sea-city-dawn-sunset-5939895/","photographer":"Mahmoud
        Alsakhnini","photographer_url":"https://www.pexels.com/@mahmoud-alsakhnini-5767275","photographer_id":5767275,"avg_color":"#607D98","src":{"original":"https://images.pexels.com/photos/5939895/pexels-photo-5939895.jpeg","large2x":"https://images.pexels.com/photos/5939895/pexels-photo-5939895.jpeg?auto=compress\u0026cs=tinysrgb\u0026dpr=2\u0026h=650\u0026w=940","large":"https://images.pexels.com/photos/5939895/pexels-photo-5939895.jpeg?auto=compress\u0026cs=tinysrgb\u0026h=650\u0026w=940","medium":"https://images.pexels.com/photos/5939895/pexels-photo-5939895.jpeg?auto=compress\u0026cs=tinysrgb\u0026h=350","small":"https://images.pexels.com/photos/5939895/pexels-photo-5939895.jpeg?auto=compress\u0026cs=tinysrgb\u0026h=130","portrait":"https://images.pexels.com/photos/5939895/pexels-photo-5939895.jpeg?auto=compress\u0026cs=tinysrgb\u0026fit=crop\u0026h=1200\u0026w=800","landscape":"https://images.pexels.com/photos/5939895/pexels-photo-5939895.jpeg?auto=compress\u0026cs=tinysrgb\u0026fit=crop\u0026h=627\u0026w=1200","tiny":"https://images.pexels.com/photos/5939895/pexels-photo-5939895.jpeg?auto=compress\u0026cs=tinysrgb\u0026dpr=1\u0026fit=crop\u0026h=200\u0026w=280"},"liked":false},{"id":5962574,"width":5000,"height":3333,"url":"https://www.pexels.com/photo/city-skyline-during-night-time-5962574/","photographer":"KEHN
        HERMANO","photographer_url":"https://www.pexels.com/@brotherkehn","photographer_id":1963377,"avg_color":"#272B30","src":{"original":"https://images.pexels.com/photos/5962574/pexels-photo-5962574.jpeg","large2x":"https://images.pexels.com/photos/5962574/pexels-photo-5962574.jpeg?auto=compress\u0026cs=tinysrgb\u0026dpr=2\u0026h=650\u0026w=940","large":"https://images.pexels.com/photos/5962574/pexels-photo-5962574.jpeg?auto=compress\u0026cs=tinysrgb\u0026h=650\u0026w=940","medium":"https://images.pexels.com/photos/5962574/pexels-photo-5962574.jpeg?auto=compress\u0026cs=tinysrgb\u0026h=350","small":"https://images.pexels.com/photos/5962574/pexels-photo-5962574.jpeg?auto=compress\u0026cs=tinysrgb\u0026h=130","portrait":"https://images.pexels.com/photos/5962574/pexels-photo-5962574.jpeg?auto=compress\u0026cs=tinysrgb\u0026fit=crop\u0026h=1200\u0026w=800","landscape":"https://images.pexels.com/photos/5962574/pexels-photo-5962574.jpeg?auto=compress\u0026cs=tinysrgb\u0026fit=crop\u0026h=627\u0026w=1200","tiny":"https://images.pexels.com/photos/5962574/pexels-photo-5962574.jpeg?auto=compress\u0026cs=tinysrgb\u0026dpr=1\u0026fit=crop\u0026h=200\u0026w=280"},"liked":false},{"id":6178933,"width":2000,"height":3000,"url":"https://www.pexels.com/photo/city-skyline-building-office-6178933/","photographer":"Petar
        Avramoski","photographer_url":"https://www.pexels.com/@ernesto","photographer_id":3821978,"avg_color":"#767577","src":{"original":"https://images.pexels.com/photos/6178933/pexels-photo-6178933.jpeg","large2x":"https://images.pexels.com/photos/6178933/pexels-photo-6178933.jpeg?auto=compress\u0026cs=tinysrgb\u0026dpr=2\u0026h=650\u0026w=940","large":"https://images.pexels.com/photos/6178933/pexels-photo-6178933.jpeg?auto=compress\u0026cs=tinysrgb\u0026h=650\u0026w=940","medium":"https://images.pexels.com/photos/6178933/pexels-photo-6178933.jpeg?auto=compress\u0026cs=tinysrgb\u0026h=350","small":"https://images.pexels.com/photos/6178933/pexels-photo-6178933.jpeg?auto=compress\u0026cs=tinysrgb\u0026h=130","portrait":"https://images.pexels.com/photos/6178933/pexels-photo-6178933.jpeg?auto=compress\u0026cs=tinysrgb\u0026fit=crop\u0026h=1200\u0026w=800","landscape":"https://images.pexels.com/photos/6178933/pexels-photo-6178933.jpeg?auto=compress\u0026cs=tinysrgb\u0026fit=crop\u0026h=627\u0026w=1200","tiny":"https://images.pexels.com/photos/6178933/pexels-photo-6178933.jpeg?auto=compress\u0026cs=tinysrgb\u0026dpr=1\u0026fit=crop\u0026h=200\u0026w=280"},"liked":false}],"total_results":8000,"next_page":"https://api.pexels.com/v1/search/?page=2\u0026per_page=15\u0026query=+skyline"}'
  recorded_at: Fri, 14 May 2021 18:37:39 GMT
recorded_with: VCR 6.0.0
