---
http_interactions:
- request:
    method: get
    uri: https://api.pexels.com/v1/search?query=%20skyline
    body:
      encoding: US-ASCII
      string: ''
    headers:
      User-Agent:
      - Faraday v1.4.1
      Authorization:
      - SECURE
      Accept-Encoding:
      - gzip;q=1.0,deflate;q=0.6,identity;q=0.3
      Accept:
      - "*/*"
  response:
    status:
      code: 200
      message: OK
    headers:
      Date:
      - Tue, 27 Apr 2021 19:36:48 GMT
      Content-Type:
      - application/json; charset=utf-8
      Content-Length:
      - '2011'
      Connection:
      - keep-alive
      Set-Cookie:
      - __cf_bm=9f55692fd510b8c318cc97ac97300c0d3d5752f0-1619483824-1800-AW0yYB1mGcYhDh1QcZwEH5LLAGKP2Lebb2S09WrOZ6AJK92U4oWPgNd4ou0i4dYPgZ7yyMnTyiPEVryudORC04o=;
        path=/; expires=Tue, 27-Apr-21 01:07:04 GMT; domain=.pexels.com; HttpOnly;
        Secure; SameSite=None
      - __cf_bm=a70bff72972f794ff5307d80f851ad1a21eb3552-1619552208-1800-AatXNo/WHfIkipGtfbKf01lS5AbXbJHmhcOPDrGRUtNMxAKjZKntFG11RrKJRAPNaGe1nMlneR3C/DW6QGMnYEY=;
        path=/; expires=Tue, 27-Apr-21 20:06:48 GMT; domain=.pexels.com; HttpOnly;
        Secure; SameSite=None
      - __cfduid=d1eb9fc4fd9d118899fd52d7ad6ffc58b1619483824; expires=Thu, 27-May-21
        00:37:04 GMT; path=/; domain=.pexels.com; HttpOnly; SameSite=Lax; Secure
      - __cfduid=dbd42c6ce3d857c91f1a06c58935750311619552208; expires=Thu, 27-May-21
        19:36:48 GMT; path=/; domain=.pexels.com; HttpOnly; SameSite=Lax; Secure
      Alt-Svc:
      - h3-27=":443"; ma=86400, h3-28=":443"; ma=86400, h3-29=":443"; ma=86400
      Cache-Control:
      - max-age=0, private, must-revalidate
      Cf-Cache-Status:
      - DYNAMIC
      Cf-Request-Id:
      - '09b66e9f520000c7b5e286d000000001'
      Expect-Ct:
      - max-age=604800, report-uri="https://report-uri.cloudflare.com/cdn-cgi/beacon/expect-ct"
      Vary:
      - Origin
      X-Frame-Options:
      - ALLOWALL
      X-Ratelimit-Limit:
      - '20000'
      X-Ratelimit-Remaining:
      - '19930'
      X-Ratelimit-Reset:
      - '1621813704'
      X-Request-Id:
      - 047712bc-5455-442d-b283-2b238683c70c
      X-Runtime:
      - '0.122582'
      X-Server:
      - master
      X-Tyk-Cached-Response:
      - '1'
      Server:
      - cloudflare
      Cf-Ray:
      - 646a80788ae6c7b5-DEN
    body:
      encoding: ASCII-8BIT
      string: '{"page":1,"per_page":15,"photos":[{"id":3611545,"width":6000,"height":4000,"url":"https://www.pexels.com/photo/city-skyline-across-body-of-water-during-night-time-3611545/","photographer":"Abbas
        Mohammed","photographer_url":"https://www.pexels.com/@abbas-mohammed-1990079","photographer_id":1990079,"avg_color":"#6E4A58","src":{"original":"https://images.pexels.com/photos/3611545/pexels-photo-3611545.jpeg","large2x":"https://images.pexels.com/photos/3611545/pexels-photo-3611545.jpeg?auto=compress\u0026cs=tinysrgb\u0026dpr=2\u0026h=650\u0026w=940","large":"https://images.pexels.com/photos/3611545/pexels-photo-3611545.jpeg?auto=compress\u0026cs=tinysrgb\u0026h=650\u0026w=940","medium":"https://images.pexels.com/photos/3611545/pexels-photo-3611545.jpeg?auto=compress\u0026cs=tinysrgb\u0026h=350","small":"https://images.pexels.com/photos/3611545/pexels-photo-3611545.jpeg?auto=compress\u0026cs=tinysrgb\u0026h=130","portrait":"https://images.pexels.com/photos/3611545/pexels-photo-3611545.jpeg?auto=compress\u0026cs=tinysrgb\u0026fit=crop\u0026h=1200\u0026w=800","landscape":"https://images.pexels.com/photos/3611545/pexels-photo-3611545.jpeg?auto=compress\u0026cs=tinysrgb\u0026fit=crop\u0026h=627\u0026w=1200","tiny":"https://images.pexels.com/photos/3611545/pexels-photo-3611545.jpeg?auto=compress\u0026cs=tinysrgb\u0026dpr=1\u0026fit=crop\u0026h=200\u0026w=280"},"liked":false},{"id":3654874,"width":5940,"height":3960,"url":"https://www.pexels.com/photo/city-skyline-during-night-time-3654874/","photographer":"Griffin
        Wooldridge","photographer_url":"https://www.pexels.com/@griffinw","photographer_id":759544,"avg_color":"#312B29","src":{"original":"https://images.pexels.com/photos/3654874/pexels-photo-3654874.jpeg","large2x":"https://images.pexels.com/photos/3654874/pexels-photo-3654874.jpeg?auto=compress\u0026cs=tinysrgb\u0026dpr=2\u0026h=650\u0026w=940","large":"https://images.pexels.com/photos/3654874/pexels-photo-3654874.jpeg?auto=compress\u0026cs=tinysrgb\u0026h=650\u0026w=940","medium":"https://images.pexels.com/photos/3654874/pexels-photo-3654874.jpeg?auto=compress\u0026cs=tinysrgb\u0026h=350","small":"https://images.pexels.com/photos/3654874/pexels-photo-3654874.jpeg?auto=compress\u0026cs=tinysrgb\u0026h=130","portrait":"https://images.pexels.com/photos/3654874/pexels-photo-3654874.jpeg?auto=compress\u0026cs=tinysrgb\u0026fit=crop\u0026h=1200\u0026w=800","landscape":"https://images.pexels.com/photos/3654874/pexels-photo-3654874.jpeg?auto=compress\u0026cs=tinysrgb\u0026fit=crop\u0026h=627\u0026w=1200","tiny":"https://images.pexels.com/photos/3654874/pexels-photo-3654874.jpeg?auto=compress\u0026cs=tinysrgb\u0026dpr=1\u0026fit=crop\u0026h=200\u0026w=280"},"liked":false},{"id":1603346,"width":3648,"height":2736,"url":"https://www.pexels.com/photo/low-angle-view-of-high-rise-buildings-1603346/","photographer":"SevenStorm
        JUHASZIMRUS","photographer_url":"https://www.pexels.com/@sevenstormphotography","photographer_id":106219,"avg_color":"#666666","src":{"original":"https://images.pexels.com/photos/1603346/pexels-photo-1603346.jpeg","large2x":"https://images.pexels.com/photos/1603346/pexels-photo-1603346.jpeg?auto=compress\u0026cs=tinysrgb\u0026dpr=2\u0026h=650\u0026w=940","large":"https://images.pexels.com/photos/1603346/pexels-photo-1603346.jpeg?auto=compress\u0026cs=tinysrgb\u0026h=650\u0026w=940","medium":"https://images.pexels.com/photos/1603346/pexels-photo-1603346.jpeg?auto=compress\u0026cs=tinysrgb\u0026h=350","small":"https://images.pexels.com/photos/1603346/pexels-photo-1603346.jpeg?auto=compress\u0026cs=tinysrgb\u0026h=130","portrait":"https://images.pexels.com/photos/1603346/pexels-photo-1603346.jpeg?auto=compress\u0026cs=tinysrgb\u0026fit=crop\u0026h=1200\u0026w=800","landscape":"https://images.pexels.com/photos/1603346/pexels-photo-1603346.jpeg?auto=compress\u0026cs=tinysrgb\u0026fit=crop\u0026h=627\u0026w=1200","tiny":"https://images.pexels.com/photos/1603346/pexels-photo-1603346.jpeg?auto=compress\u0026cs=tinysrgb\u0026dpr=1\u0026fit=crop\u0026h=200\u0026w=280"},"liked":false},{"id":2423927,"width":6000,"height":3000,"url":"https://www.pexels.com/photo/ferry-boat-on-body-of-water-2423927/","photographer":"Ken
        Ozuna","photographer_url":"https://www.pexels.com/@kenozu","photographer_id":1271481,"avg_color":"#2E3C47","src":{"original":"https://images.pexels.com/photos/2423927/pexels-photo-2423927.jpeg","large2x":"https://images.pexels.com/photos/2423927/pexels-photo-2423927.jpeg?auto=compress\u0026cs=tinysrgb\u0026dpr=2\u0026h=650\u0026w=940","large":"https://images.pexels.com/photos/2423927/pexels-photo-2423927.jpeg?auto=compress\u0026cs=tinysrgb\u0026h=650\u0026w=940","medium":"https://images.pexels.com/photos/2423927/pexels-photo-2423927.jpeg?auto=compress\u0026cs=tinysrgb\u0026h=350","small":"https://images.pexels.com/photos/2423927/pexels-photo-2423927.jpeg?auto=compress\u0026cs=tinysrgb\u0026h=130","portrait":"https://images.pexels.com/photos/2423927/pexels-photo-2423927.jpeg?auto=compress\u0026cs=tinysrgb\u0026fit=crop\u0026h=1200\u0026w=800","landscape":"https://images.pexels.com/photos/2423927/pexels-photo-2423927.jpeg?auto=compress\u0026cs=tinysrgb\u0026fit=crop\u0026h=627\u0026w=1200","tiny":"https://images.pexels.com/photos/2423927/pexels-photo-2423927.jpeg?auto=compress\u0026cs=tinysrgb\u0026dpr=1\u0026fit=crop\u0026h=200\u0026w=280"},"liked":false},{"id":3052683,"width":5129,"height":2171,"url":"https://www.pexels.com/photo/modern-buildings-3052683/","photographer":"Scott
        Webb","photographer_url":"https://www.pexels.com/@scottwebb","photographer_id":39047,"avg_color":"#444849","src":{"original":"https://images.pexels.com/photos/3052683/pexels-photo-3052683.jpeg","large2x":"https://images.pexels.com/photos/3052683/pexels-photo-3052683.jpeg?auto=compress\u0026cs=tinysrgb\u0026dpr=2\u0026h=650\u0026w=940","large":"https://images.pexels.com/photos/3052683/pexels-photo-3052683.jpeg?auto=compress\u0026cs=tinysrgb\u0026h=650\u0026w=940","medium":"https://images.pexels.com/photos/3052683/pexels-photo-3052683.jpeg?auto=compress\u0026cs=tinysrgb\u0026h=350","small":"https://images.pexels.com/photos/3052683/pexels-photo-3052683.jpeg?auto=compress\u0026cs=tinysrgb\u0026h=130","portrait":"https://images.pexels.com/photos/3052683/pexels-photo-3052683.jpeg?auto=compress\u0026cs=tinysrgb\u0026fit=crop\u0026h=1200\u0026w=800","landscape":"https://images.pexels.com/photos/3052683/pexels-photo-3052683.jpeg?auto=compress\u0026cs=tinysrgb\u0026fit=crop\u0026h=627\u0026w=1200","tiny":"https://images.pexels.com/photos/3052683/pexels-photo-3052683.jpeg?auto=compress\u0026cs=tinysrgb\u0026dpr=1\u0026fit=crop\u0026h=200\u0026w=280"},"liked":false},{"id":4098736,"width":1800,"height":2399,"url":"https://www.pexels.com/photo/city-skyline-under-cloudy-sky-4098736/","photographer":"Thalita
        Marqui","photographer_url":"https://www.pexels.com/@thalita-marqui-2476817","photographer_id":2476817,"avg_color":"#757368","src":{"original":"https://images.pexels.com/photos/4098736/pexels-photo-4098736.jpeg","large2x":"https://images.pexels.com/photos/4098736/pexels-photo-4098736.jpeg?auto=compress\u0026cs=tinysrgb\u0026dpr=2\u0026h=650\u0026w=940","large":"https://images.pexels.com/photos/4098736/pexels-photo-4098736.jpeg?auto=compress\u0026cs=tinysrgb\u0026h=650\u0026w=940","medium":"https://images.pexels.com/photos/4098736/pexels-photo-4098736.jpeg?auto=compress\u0026cs=tinysrgb\u0026h=350","small":"https://images.pexels.com/photos/4098736/pexels-photo-4098736.jpeg?auto=compress\u0026cs=tinysrgb\u0026h=130","portrait":"https://images.pexels.com/photos/4098736/pexels-photo-4098736.jpeg?auto=compress\u0026cs=tinysrgb\u0026fit=crop\u0026h=1200\u0026w=800","landscape":"https://images.pexels.com/photos/4098736/pexels-photo-4098736.jpeg?auto=compress\u0026cs=tinysrgb\u0026fit=crop\u0026h=627\u0026w=1200","tiny":"https://images.pexels.com/photos/4098736/pexels-photo-4098736.jpeg?auto=compress\u0026cs=tinysrgb\u0026dpr=1\u0026fit=crop\u0026h=200\u0026w=280"},"liked":false},{"id":5921872,"width":3340,"height":4175,"url":"https://www.pexels.com/photo/black-and-white-concrete-building-5921872/","photographer":"Josh
        Hild","photographer_url":"https://www.pexels.com/@josh-hild-1270765","photographer_id":1270765,"avg_color":"#3B4548","src":{"original":"https://images.pexels.com/photos/5921872/pexels-photo-5921872.jpeg","large2x":"https://images.pexels.com/photos/5921872/pexels-photo-5921872.jpeg?auto=compress\u0026cs=tinysrgb\u0026dpr=2\u0026h=650\u0026w=940","large":"https://images.pexels.com/photos/5921872/pexels-photo-5921872.jpeg?auto=compress\u0026cs=tinysrgb\u0026h=650\u0026w=940","medium":"https://images.pexels.com/photos/5921872/pexels-photo-5921872.jpeg?auto=compress\u0026cs=tinysrgb\u0026h=350","small":"https://images.pexels.com/photos/5921872/pexels-photo-5921872.jpeg?auto=compress\u0026cs=tinysrgb\u0026h=130","portrait":"https://images.pexels.com/photos/5921872/pexels-photo-5921872.jpeg?auto=compress\u0026cs=tinysrgb\u0026fit=crop\u0026h=1200\u0026w=800","landscape":"https://images.pexels.com/photos/5921872/pexels-photo-5921872.jpeg?auto=compress\u0026cs=tinysrgb\u0026fit=crop\u0026h=627\u0026w=1200","tiny":"https://images.pexels.com/photos/5921872/pexels-photo-5921872.jpeg?auto=compress\u0026cs=tinysrgb\u0026dpr=1\u0026fit=crop\u0026h=200\u0026w=280"},"liked":false},{"id":6622896,"width":6361,"height":3976,"url":"https://www.pexels.com/photo/light-city-sunset-water-6622896/","photographer":"Leon
        Macapagal","photographer_url":"https://www.pexels.com/@imagevain","photographer_id":1234433,"avg_color":"#2E2F31","src":{"original":"https://images.pexels.com/photos/6622896/pexels-photo-6622896.jpeg","large2x":"https://images.pexels.com/photos/6622896/pexels-photo-6622896.jpeg?auto=compress\u0026cs=tinysrgb\u0026dpr=2\u0026h=650\u0026w=940","large":"https://images.pexels.com/photos/6622896/pexels-photo-6622896.jpeg?auto=compress\u0026cs=tinysrgb\u0026h=650\u0026w=940","medium":"https://images.pexels.com/photos/6622896/pexels-photo-6622896.jpeg?auto=compress\u0026cs=tinysrgb\u0026h=350","small":"https://images.pexels.com/photos/6622896/pexels-photo-6622896.jpeg?auto=compress\u0026cs=tinysrgb\u0026h=130","portrait":"https://images.pexels.com/photos/6622896/pexels-photo-6622896.jpeg?auto=compress\u0026cs=tinysrgb\u0026fit=crop\u0026h=1200\u0026w=800","landscape":"https://images.pexels.com/photos/6622896/pexels-photo-6622896.jpeg?auto=compress\u0026cs=tinysrgb\u0026fit=crop\u0026h=627\u0026w=1200","tiny":"https://images.pexels.com/photos/6622896/pexels-photo-6622896.jpeg?auto=compress\u0026cs=tinysrgb\u0026dpr=1\u0026fit=crop\u0026h=200\u0026w=280"},"liked":false},{"id":6868158,"width":5304,"height":7952,"url":"https://www.pexels.com/photo/city-water-skyline-building-6868158/","photographer":"Maria
        Charizani","photographer_url":"https://www.pexels.com/@maria-charizani-3542905","photographer_id":3542905,"avg_color":"#A3B6C9","src":{"original":"https://images.pexels.com/photos/6868158/pexels-photo-6868158.jpeg","large2x":"https://images.pexels.com/photos/6868158/pexels-photo-6868158.jpeg?auto=compress\u0026cs=tinysrgb\u0026dpr=2\u0026h=650\u0026w=940","large":"https://images.pexels.com/photos/6868158/pexels-photo-6868158.jpeg?auto=compress\u0026cs=tinysrgb\u0026h=650\u0026w=940","medium":"https://images.pexels.com/photos/6868158/pexels-photo-6868158.jpeg?auto=compress\u0026cs=tinysrgb\u0026h=350","small":"https://images.pexels.com/photos/6868158/pexels-photo-6868158.jpeg?auto=compress\u0026cs=tinysrgb\u0026h=130","portrait":"https://images.pexels.com/photos/6868158/pexels-photo-6868158.jpeg?auto=compress\u0026cs=tinysrgb\u0026fit=crop\u0026h=1200\u0026w=800","landscape":"https://images.pexels.com/photos/6868158/pexels-photo-6868158.jpeg?auto=compress\u0026cs=tinysrgb\u0026fit=crop\u0026h=627\u0026w=1200","tiny":"https://images.pexels.com/photos/6868158/pexels-photo-6868158.jpeg?auto=compress\u0026cs=tinysrgb\u0026dpr=1\u0026fit=crop\u0026h=200\u0026w=280"},"liked":false},{"id":6398585,"width":8000,"height":6000,"url":"https://www.pexels.com/photo/city-dawn-sunset-water-6398585/","photographer":"Ollie
        Craig","photographer_url":"https://www.pexels.com/@olliecraig1","photographer_id":2821241,"avg_color":"#707478","src":{"original":"https://images.pexels.com/photos/6398585/pexels-photo-6398585.jpeg","large2x":"https://images.pexels.com/photos/6398585/pexels-photo-6398585.jpeg?auto=compress\u0026cs=tinysrgb\u0026dpr=2\u0026h=650\u0026w=940","large":"https://images.pexels.com/photos/6398585/pexels-photo-6398585.jpeg?auto=compress\u0026cs=tinysrgb\u0026h=650\u0026w=940","medium":"https://images.pexels.com/photos/6398585/pexels-photo-6398585.jpeg?auto=compress\u0026cs=tinysrgb\u0026h=350","small":"https://images.pexels.com/photos/6398585/pexels-photo-6398585.jpeg?auto=compress\u0026cs=tinysrgb\u0026h=130","portrait":"https://images.pexels.com/photos/6398585/pexels-photo-6398585.jpeg?auto=compress\u0026cs=tinysrgb\u0026fit=crop\u0026h=1200\u0026w=800","landscape":"https://images.pexels.com/photos/6398585/pexels-photo-6398585.jpeg?auto=compress\u0026cs=tinysrgb\u0026fit=crop\u0026h=627\u0026w=1200","tiny":"https://images.pexels.com/photos/6398585/pexels-photo-6398585.jpeg?auto=compress\u0026cs=tinysrgb\u0026dpr=1\u0026fit=crop\u0026h=200\u0026w=280"},"liked":false},{"id":6572442,"width":5277,"height":2965,"url":"https://www.pexels.com/photo/popular-majestic-skyscrapers-of-new-york-6572442/","photographer":"Kelly
        Lacy","photographer_url":"https://www.pexels.com/@kelly-lacy-1179532","photographer_id":1179532,"avg_color":"#787678","src":{"original":"https://images.pexels.com/photos/6572442/pexels-photo-6572442.jpeg","large2x":"https://images.pexels.com/photos/6572442/pexels-photo-6572442.jpeg?auto=compress\u0026cs=tinysrgb\u0026dpr=2\u0026h=650\u0026w=940","large":"https://images.pexels.com/photos/6572442/pexels-photo-6572442.jpeg?auto=compress\u0026cs=tinysrgb\u0026h=650\u0026w=940","medium":"https://images.pexels.com/photos/6572442/pexels-photo-6572442.jpeg?auto=compress\u0026cs=tinysrgb\u0026h=350","small":"https://images.pexels.com/photos/6572442/pexels-photo-6572442.jpeg?auto=compress\u0026cs=tinysrgb\u0026h=130","portrait":"https://images.pexels.com/photos/6572442/pexels-photo-6572442.jpeg?auto=compress\u0026cs=tinysrgb\u0026fit=crop\u0026h=1200\u0026w=800","landscape":"https://images.pexels.com/photos/6572442/pexels-photo-6572442.jpeg?auto=compress\u0026cs=tinysrgb\u0026fit=crop\u0026h=627\u0026w=1200","tiny":"https://images.pexels.com/photos/6572442/pexels-photo-6572442.jpeg?auto=compress\u0026cs=tinysrgb\u0026dpr=1\u0026fit=crop\u0026h=200\u0026w=280"},"liked":false},{"id":4034345,"width":6017,"height":4011,"url":"https://www.pexels.com/photo/photo-of-city-during-night-4034345/","photographer":"Alvin
        Chin","photographer_url":"https://www.pexels.com/@alvin-chin-210139","photographer_id":210139,"avg_color":"#1C1917","src":{"original":"https://images.pexels.com/photos/4034345/pexels-photo-4034345.jpeg","large2x":"https://images.pexels.com/photos/4034345/pexels-photo-4034345.jpeg?auto=compress\u0026cs=tinysrgb\u0026dpr=2\u0026h=650\u0026w=940","large":"https://images.pexels.com/photos/4034345/pexels-photo-4034345.jpeg?auto=compress\u0026cs=tinysrgb\u0026h=650\u0026w=940","medium":"https://images.pexels.com/photos/4034345/pexels-photo-4034345.jpeg?auto=compress\u0026cs=tinysrgb\u0026h=350","small":"https://images.pexels.com/photos/4034345/pexels-photo-4034345.jpeg?auto=compress\u0026cs=tinysrgb\u0026h=130","portrait":"https://images.pexels.com/photos/4034345/pexels-photo-4034345.jpeg?auto=compress\u0026cs=tinysrgb\u0026fit=crop\u0026h=1200\u0026w=800","landscape":"https://images.pexels.com/photos/4034345/pexels-photo-4034345.jpeg?auto=compress\u0026cs=tinysrgb\u0026fit=crop\u0026h=627\u0026w=1200","tiny":"https://images.pexels.com/photos/4034345/pexels-photo-4034345.jpeg?auto=compress\u0026cs=tinysrgb\u0026dpr=1\u0026fit=crop\u0026h=200\u0026w=280"},"liked":false},{"id":4332187,"width":5297,"height":3528,"url":"https://www.pexels.com/photo/city-skyline-under-white-cloudy-sky-4332187/","photographer":"ArtHouse
        Studio","photographer_url":"https://www.pexels.com/@nick-bondarev","photographer_id":2766954,"avg_color":"#A7ADB2","src":{"original":"https://images.pexels.com/photos/4332187/pexels-photo-4332187.jpeg","large2x":"https://images.pexels.com/photos/4332187/pexels-photo-4332187.jpeg?auto=compress\u0026cs=tinysrgb\u0026dpr=2\u0026h=650\u0026w=940","large":"https://images.pexels.com/photos/4332187/pexels-photo-4332187.jpeg?auto=compress\u0026cs=tinysrgb\u0026h=650\u0026w=940","medium":"https://images.pexels.com/photos/4332187/pexels-photo-4332187.jpeg?auto=compress\u0026cs=tinysrgb\u0026h=350","small":"https://images.pexels.com/photos/4332187/pexels-photo-4332187.jpeg?auto=compress\u0026cs=tinysrgb\u0026h=130","portrait":"https://images.pexels.com/photos/4332187/pexels-photo-4332187.jpeg?auto=compress\u0026cs=tinysrgb\u0026fit=crop\u0026h=1200\u0026w=800","landscape":"https://images.pexels.com/photos/4332187/pexels-photo-4332187.jpeg?auto=compress\u0026cs=tinysrgb\u0026fit=crop\u0026h=627\u0026w=1200","tiny":"https://images.pexels.com/photos/4332187/pexels-photo-4332187.jpeg?auto=compress\u0026cs=tinysrgb\u0026dpr=1\u0026fit=crop\u0026h=200\u0026w=280"},"liked":false},{"id":6572447,"width":5339,"height":3000,"url":"https://www.pexels.com/photo/modern-city-with-majestic-giant-skyscrapers-6572447/","photographer":"Kelly
        Lacy","photographer_url":"https://www.pexels.com/@kelly-lacy-1179532","photographer_id":1179532,"avg_color":"#82828A","src":{"original":"https://images.pexels.com/photos/6572447/pexels-photo-6572447.jpeg","large2x":"https://images.pexels.com/photos/6572447/pexels-photo-6572447.jpeg?auto=compress\u0026cs=tinysrgb\u0026dpr=2\u0026h=650\u0026w=940","large":"https://images.pexels.com/photos/6572447/pexels-photo-6572447.jpeg?auto=compress\u0026cs=tinysrgb\u0026h=650\u0026w=940","medium":"https://images.pexels.com/photos/6572447/pexels-photo-6572447.jpeg?auto=compress\u0026cs=tinysrgb\u0026h=350","small":"https://images.pexels.com/photos/6572447/pexels-photo-6572447.jpeg?auto=compress\u0026cs=tinysrgb\u0026h=130","portrait":"https://images.pexels.com/photos/6572447/pexels-photo-6572447.jpeg?auto=compress\u0026cs=tinysrgb\u0026fit=crop\u0026h=1200\u0026w=800","landscape":"https://images.pexels.com/photos/6572447/pexels-photo-6572447.jpeg?auto=compress\u0026cs=tinysrgb\u0026fit=crop\u0026h=627\u0026w=1200","tiny":"https://images.pexels.com/photos/6572447/pexels-photo-6572447.jpeg?auto=compress\u0026cs=tinysrgb\u0026dpr=1\u0026fit=crop\u0026h=200\u0026w=280"},"liked":false},{"id":6572456,"width":5464,"height":3070,"url":"https://www.pexels.com/photo/modern-architecture-of-new-york-under-tranquil-cloudy-sky-6572456/","photographer":"Kelly
        Lacy","photographer_url":"https://www.pexels.com/@kelly-lacy-1179532","photographer_id":1179532,"avg_color":"#8895A2","src":{"original":"https://images.pexels.com/photos/6572456/pexels-photo-6572456.jpeg","large2x":"https://images.pexels.com/photos/6572456/pexels-photo-6572456.jpeg?auto=compress\u0026cs=tinysrgb\u0026dpr=2\u0026h=650\u0026w=940","large":"https://images.pexels.com/photos/6572456/pexels-photo-6572456.jpeg?auto=compress\u0026cs=tinysrgb\u0026h=650\u0026w=940","medium":"https://images.pexels.com/photos/6572456/pexels-photo-6572456.jpeg?auto=compress\u0026cs=tinysrgb\u0026h=350","small":"https://images.pexels.com/photos/6572456/pexels-photo-6572456.jpeg?auto=compress\u0026cs=tinysrgb\u0026h=130","portrait":"https://images.pexels.com/photos/6572456/pexels-photo-6572456.jpeg?auto=compress\u0026cs=tinysrgb\u0026fit=crop\u0026h=1200\u0026w=800","landscape":"https://images.pexels.com/photos/6572456/pexels-photo-6572456.jpeg?auto=compress\u0026cs=tinysrgb\u0026fit=crop\u0026h=627\u0026w=1200","tiny":"https://images.pexels.com/photos/6572456/pexels-photo-6572456.jpeg?auto=compress\u0026cs=tinysrgb\u0026dpr=1\u0026fit=crop\u0026h=200\u0026w=280"},"liked":false}],"total_results":8000,"next_page":"https://api.pexels.com/v1/search/?page=2\u0026per_page=15\u0026query=+skyline"}'
  recorded_at: Tue, 27 Apr 2021 19:36:45 GMT
recorded_with: VCR 6.0.0
