---
http_interactions:
- request:
    method: get
    uri: https://api.pexels.com/v1/search?query=denver,co%20skyline
    body:
      encoding: US-ASCII
      string: ''
    headers:
      User-Agent:
      - Faraday v1.4.1
      Authorization:
      - SECURE
      Accept-Encoding:
      - gzip;q=1.0,deflate;q=0.6,identity;q=0.3
      Accept:
      - "*/*"
  response:
    status:
      code: 200
      message: OK
    headers:
      Date:
      - Fri, 14 May 2021 18:37:43 GMT
      Content-Type:
      - application/json; charset=utf-8
      Content-Length:
      - '2230'
      Connection:
      - keep-alive
      Alt-Svc:
      - h3-27=":443"; ma=86400, h3-28=":443"; ma=86400, h3-29=":443"; ma=86400
      Cache-Control:
      - max-age=0, private, must-revalidate
      Cf-Cache-Status:
      - DYNAMIC
      Cf-Request-Id:
      - 0a0dc4a0ab0000f7940ab7f000000001
      Expect-Ct:
      - max-age=604800, report-uri="https://report-uri.cloudflare.com/cdn-cgi/beacon/expect-ct"
      Set-Cookie:
      - __cf_bm=0ab5b3f7ae88916a051b42d43a86b1792955be92-1621017463-1800-AasDEmJN95nFtF1g1Pq0uo1u90unVyZ0XjkW+hIcn/wpOliuwohnPRjZXNpel+yDA2/g+8BukN4AV/KA+N+/3wQ=;
        path=/; expires=Fri, 14-May-21 19:07:43 GMT; domain=.pexels.com; HttpOnly;
        Secure; SameSite=None
      - __cf_bm=ac4e5d4bb0ca9008d8e3ce7db5ca8d593962815e-1621017463-1800-Ad3C7McCP323giu1FHpw1wCKfzR5YJzZZ8ZxLtr0TjQAZAh7R+n5fMpPxH0oIP39qvDyG+/WPHvFh4pWg7Fi5EU=;
        path=/; expires=Fri, 14-May-21 19:07:43 GMT; domain=.pexels.com; HttpOnly;
        Secure; SameSite=None
      Vary:
      - Origin
      X-Frame-Options:
      - ALLOWALL
      X-Ratelimit-Limit:
      - '20000'
      X-Ratelimit-Remaining:
      - '19900'
      X-Ratelimit-Reset:
      - '1621813704'
      X-Request-Id:
      - c112dc2f-39fa-424a-943e-3a4f8a96da0c
      X-Runtime:
      - '0.157038'
      X-Server:
      - master
      Server:
      - cloudflare
      Cf-Ray:
      - 64f63d477cf8f794-DEN
    body:
      encoding: ASCII-8BIT
      string: '{"page":1,"per_page":15,"photos":[{"id":325185,"width":5472,"height":3648,"url":"https://www.pexels.com/photo/view-of-cityscape-325185/","photographer":"Aleksandar
        Pasaric","photographer_url":"https://www.pexels.com/@apasaric","photographer_id":105079,"avg_color":"#CBD0D6","src":{"original":"https://images.pexels.com/photos/325185/pexels-photo-325185.jpeg","large2x":"https://images.pexels.com/photos/325185/pexels-photo-325185.jpeg?auto=compress\u0026cs=tinysrgb\u0026dpr=2\u0026h=650\u0026w=940","large":"https://images.pexels.com/photos/325185/pexels-photo-325185.jpeg?auto=compress\u0026cs=tinysrgb\u0026h=650\u0026w=940","medium":"https://images.pexels.com/photos/325185/pexels-photo-325185.jpeg?auto=compress\u0026cs=tinysrgb\u0026h=350","small":"https://images.pexels.com/photos/325185/pexels-photo-325185.jpeg?auto=compress\u0026cs=tinysrgb\u0026h=130","portrait":"https://images.pexels.com/photos/325185/pexels-photo-325185.jpeg?auto=compress\u0026cs=tinysrgb\u0026fit=crop\u0026h=1200\u0026w=800","landscape":"https://images.pexels.com/photos/325185/pexels-photo-325185.jpeg?auto=compress\u0026cs=tinysrgb\u0026fit=crop\u0026h=627\u0026w=1200","tiny":"https://images.pexels.com/photos/325185/pexels-photo-325185.jpeg?auto=compress\u0026cs=tinysrgb\u0026dpr=1\u0026fit=crop\u0026h=200\u0026w=280"},"liked":false},{"id":3052361,"width":3843,"height":5790,"url":"https://www.pexels.com/photo/skyline-photography-of-buildings-3052361/","photographer":"Sanaan
        Mazhar","photographer_url":"https://www.pexels.com/@sanaan","photographer_id":1193942,"avg_color":"#141F21","src":{"original":"https://images.pexels.com/photos/3052361/pexels-photo-3052361.jpeg","large2x":"https://images.pexels.com/photos/3052361/pexels-photo-3052361.jpeg?auto=compress\u0026cs=tinysrgb\u0026dpr=2\u0026h=650\u0026w=940","large":"https://images.pexels.com/photos/3052361/pexels-photo-3052361.jpeg?auto=compress\u0026cs=tinysrgb\u0026h=650\u0026w=940","medium":"https://images.pexels.com/photos/3052361/pexels-photo-3052361.jpeg?auto=compress\u0026cs=tinysrgb\u0026h=350","small":"https://images.pexels.com/photos/3052361/pexels-photo-3052361.jpeg?auto=compress\u0026cs=tinysrgb\u0026h=130","portrait":"https://images.pexels.com/photos/3052361/pexels-photo-3052361.jpeg?auto=compress\u0026cs=tinysrgb\u0026fit=crop\u0026h=1200\u0026w=800","landscape":"https://images.pexels.com/photos/3052361/pexels-photo-3052361.jpeg?auto=compress\u0026cs=tinysrgb\u0026fit=crop\u0026h=627\u0026w=1200","tiny":"https://images.pexels.com/photos/3052361/pexels-photo-3052361.jpeg?auto=compress\u0026cs=tinysrgb\u0026dpr=1\u0026fit=crop\u0026h=200\u0026w=280"},"liked":false},{"id":356286,"width":2000,"height":3000,"url":"https://www.pexels.com/photo/city-buildings-356286/","photographer":"Aleksandar
        Pasaric","photographer_url":"https://www.pexels.com/@apasaric","photographer_id":105079,"avg_color":"#B2B2B2","src":{"original":"https://images.pexels.com/photos/356286/pexels-photo-356286.jpeg","large2x":"https://images.pexels.com/photos/356286/pexels-photo-356286.jpeg?auto=compress\u0026cs=tinysrgb\u0026dpr=2\u0026h=650\u0026w=940","large":"https://images.pexels.com/photos/356286/pexels-photo-356286.jpeg?auto=compress\u0026cs=tinysrgb\u0026h=650\u0026w=940","medium":"https://images.pexels.com/photos/356286/pexels-photo-356286.jpeg?auto=compress\u0026cs=tinysrgb\u0026h=350","small":"https://images.pexels.com/photos/356286/pexels-photo-356286.jpeg?auto=compress\u0026cs=tinysrgb\u0026h=130","portrait":"https://images.pexels.com/photos/356286/pexels-photo-356286.jpeg?auto=compress\u0026cs=tinysrgb\u0026fit=crop\u0026h=1200\u0026w=800","landscape":"https://images.pexels.com/photos/356286/pexels-photo-356286.jpeg?auto=compress\u0026cs=tinysrgb\u0026fit=crop\u0026h=627\u0026w=1200","tiny":"https://images.pexels.com/photos/356286/pexels-photo-356286.jpeg?auto=compress\u0026cs=tinysrgb\u0026dpr=1\u0026fit=crop\u0026h=200\u0026w=280"},"liked":false},{"id":6243806,"width":4088,"height":6132,"url":"https://www.pexels.com/photo/hot-air-balloons-flying-over-town-in-daytime-6243806/","photographer":"Meruyert
        Gonullu","photographer_url":"https://www.pexels.com/@meruyert-bissimbayeva","photographer_id":3929575,"avg_color":"#A0AFB2","src":{"original":"https://images.pexels.com/photos/6243806/pexels-photo-6243806.jpeg","large2x":"https://images.pexels.com/photos/6243806/pexels-photo-6243806.jpeg?auto=compress\u0026cs=tinysrgb\u0026dpr=2\u0026h=650\u0026w=940","large":"https://images.pexels.com/photos/6243806/pexels-photo-6243806.jpeg?auto=compress\u0026cs=tinysrgb\u0026h=650\u0026w=940","medium":"https://images.pexels.com/photos/6243806/pexels-photo-6243806.jpeg?auto=compress\u0026cs=tinysrgb\u0026h=350","small":"https://images.pexels.com/photos/6243806/pexels-photo-6243806.jpeg?auto=compress\u0026cs=tinysrgb\u0026h=130","portrait":"https://images.pexels.com/photos/6243806/pexels-photo-6243806.jpeg?auto=compress\u0026cs=tinysrgb\u0026fit=crop\u0026h=1200\u0026w=800","landscape":"https://images.pexels.com/photos/6243806/pexels-photo-6243806.jpeg?auto=compress\u0026cs=tinysrgb\u0026fit=crop\u0026h=627\u0026w=1200","tiny":"https://images.pexels.com/photos/6243806/pexels-photo-6243806.jpeg?auto=compress\u0026cs=tinysrgb\u0026dpr=1\u0026fit=crop\u0026h=200\u0026w=280"},"liked":false},{"id":3075993,"width":6000,"height":4000,"url":"https://www.pexels.com/photo/photo-of-skyline-at-night-3075993/","photographer":"Sanaan
        Mazhar","photographer_url":"https://www.pexels.com/@sanaan","photographer_id":1193942,"avg_color":"#132026","src":{"original":"https://images.pexels.com/photos/3075993/pexels-photo-3075993.jpeg","large2x":"https://images.pexels.com/photos/3075993/pexels-photo-3075993.jpeg?auto=compress\u0026cs=tinysrgb\u0026dpr=2\u0026h=650\u0026w=940","large":"https://images.pexels.com/photos/3075993/pexels-photo-3075993.jpeg?auto=compress\u0026cs=tinysrgb\u0026h=650\u0026w=940","medium":"https://images.pexels.com/photos/3075993/pexels-photo-3075993.jpeg?auto=compress\u0026cs=tinysrgb\u0026h=350","small":"https://images.pexels.com/photos/3075993/pexels-photo-3075993.jpeg?auto=compress\u0026cs=tinysrgb\u0026h=130","portrait":"https://images.pexels.com/photos/3075993/pexels-photo-3075993.jpeg?auto=compress\u0026cs=tinysrgb\u0026fit=crop\u0026h=1200\u0026w=800","landscape":"https://images.pexels.com/photos/3075993/pexels-photo-3075993.jpeg?auto=compress\u0026cs=tinysrgb\u0026fit=crop\u0026h=627\u0026w=1200","tiny":"https://images.pexels.com/photos/3075993/pexels-photo-3075993.jpeg?auto=compress\u0026cs=tinysrgb\u0026dpr=1\u0026fit=crop\u0026h=200\u0026w=280"},"liked":false},{"id":5644347,"width":4912,"height":7360,"url":"https://www.pexels.com/photo/mountain-behind-lush-evergreen-forest-5644347/","photographer":"Laura
        Stanley","photographer_url":"https://www.pexels.com/@lstan","photographer_id":839768,"avg_color":"#6A7D86","src":{"original":"https://images.pexels.com/photos/5644347/pexels-photo-5644347.jpeg","large2x":"https://images.pexels.com/photos/5644347/pexels-photo-5644347.jpeg?auto=compress\u0026cs=tinysrgb\u0026dpr=2\u0026h=650\u0026w=940","large":"https://images.pexels.com/photos/5644347/pexels-photo-5644347.jpeg?auto=compress\u0026cs=tinysrgb\u0026h=650\u0026w=940","medium":"https://images.pexels.com/photos/5644347/pexels-photo-5644347.jpeg?auto=compress\u0026cs=tinysrgb\u0026h=350","small":"https://images.pexels.com/photos/5644347/pexels-photo-5644347.jpeg?auto=compress\u0026cs=tinysrgb\u0026h=130","portrait":"https://images.pexels.com/photos/5644347/pexels-photo-5644347.jpeg?auto=compress\u0026cs=tinysrgb\u0026fit=crop\u0026h=1200\u0026w=800","landscape":"https://images.pexels.com/photos/5644347/pexels-photo-5644347.jpeg?auto=compress\u0026cs=tinysrgb\u0026fit=crop\u0026h=627\u0026w=1200","tiny":"https://images.pexels.com/photos/5644347/pexels-photo-5644347.jpeg?auto=compress\u0026cs=tinysrgb\u0026dpr=1\u0026fit=crop\u0026h=200\u0026w=280"},"liked":false},{"id":830891,"width":5158,"height":3434,"url":"https://www.pexels.com/photo/low-angle-photo-of-four-high-rise-curtain-wall-buildings-under-white-clouds-and-blue-sky-830891/","photographer":"Philipp
        Birmes","photographer_url":"https://www.pexels.com/@frankfurtpictures","photographer_id":278065,"avg_color":"#7E95AF","src":{"original":"https://images.pexels.com/photos/830891/pexels-photo-830891.jpeg","large2x":"https://images.pexels.com/photos/830891/pexels-photo-830891.jpeg?auto=compress\u0026cs=tinysrgb\u0026dpr=2\u0026h=650\u0026w=940","large":"https://images.pexels.com/photos/830891/pexels-photo-830891.jpeg?auto=compress\u0026cs=tinysrgb\u0026h=650\u0026w=940","medium":"https://images.pexels.com/photos/830891/pexels-photo-830891.jpeg?auto=compress\u0026cs=tinysrgb\u0026h=350","small":"https://images.pexels.com/photos/830891/pexels-photo-830891.jpeg?auto=compress\u0026cs=tinysrgb\u0026h=130","portrait":"https://images.pexels.com/photos/830891/pexels-photo-830891.jpeg?auto=compress\u0026cs=tinysrgb\u0026fit=crop\u0026h=1200\u0026w=800","landscape":"https://images.pexels.com/photos/830891/pexels-photo-830891.jpeg?auto=compress\u0026cs=tinysrgb\u0026fit=crop\u0026h=627\u0026w=1200","tiny":"https://images.pexels.com/photos/830891/pexels-photo-830891.jpeg?auto=compress\u0026cs=tinysrgb\u0026dpr=1\u0026fit=crop\u0026h=200\u0026w=280"},"liked":false},{"id":3586966,"width":5295,"height":3530,"url":"https://www.pexels.com/photo/city-skyline-across-body-of-water-during-night-time-3586966/","photographer":"Carlos
        Oliva","photographer_url":"https://www.pexels.com/@carlos-oliva-1966452","photographer_id":1966452,"avg_color":"#194769","src":{"original":"https://images.pexels.com/photos/3586966/pexels-photo-3586966.jpeg","large2x":"https://images.pexels.com/photos/3586966/pexels-photo-3586966.jpeg?auto=compress\u0026cs=tinysrgb\u0026dpr=2\u0026h=650\u0026w=940","large":"https://images.pexels.com/photos/3586966/pexels-photo-3586966.jpeg?auto=compress\u0026cs=tinysrgb\u0026h=650\u0026w=940","medium":"https://images.pexels.com/photos/3586966/pexels-photo-3586966.jpeg?auto=compress\u0026cs=tinysrgb\u0026h=350","small":"https://images.pexels.com/photos/3586966/pexels-photo-3586966.jpeg?auto=compress\u0026cs=tinysrgb\u0026h=130","portrait":"https://images.pexels.com/photos/3586966/pexels-photo-3586966.jpeg?auto=compress\u0026cs=tinysrgb\u0026fit=crop\u0026h=1200\u0026w=800","landscape":"https://images.pexels.com/photos/3586966/pexels-photo-3586966.jpeg?auto=compress\u0026cs=tinysrgb\u0026fit=crop\u0026h=627\u0026w=1200","tiny":"https://images.pexels.com/photos/3586966/pexels-photo-3586966.jpeg?auto=compress\u0026cs=tinysrgb\u0026dpr=1\u0026fit=crop\u0026h=200\u0026w=280"},"liked":false},{"id":3184423,"width":4004,"height":6000,"url":"https://www.pexels.com/photo/photo-of-people-holding-each-other-s-hands-3184423/","photographer":"fauxels","photographer_url":"https://www.pexels.com/@fauxels","photographer_id":1281351,"avg_color":"#8B7D77","src":{"original":"https://images.pexels.com/photos/3184423/pexels-photo-3184423.jpeg","large2x":"https://images.pexels.com/photos/3184423/pexels-photo-3184423.jpeg?auto=compress\u0026cs=tinysrgb\u0026dpr=2\u0026h=650\u0026w=940","large":"https://images.pexels.com/photos/3184423/pexels-photo-3184423.jpeg?auto=compress\u0026cs=tinysrgb\u0026h=650\u0026w=940","medium":"https://images.pexels.com/photos/3184423/pexels-photo-3184423.jpeg?auto=compress\u0026cs=tinysrgb\u0026h=350","small":"https://images.pexels.com/photos/3184423/pexels-photo-3184423.jpeg?auto=compress\u0026cs=tinysrgb\u0026h=130","portrait":"https://images.pexels.com/photos/3184423/pexels-photo-3184423.jpeg?auto=compress\u0026cs=tinysrgb\u0026fit=crop\u0026h=1200\u0026w=800","landscape":"https://images.pexels.com/photos/3184423/pexels-photo-3184423.jpeg?auto=compress\u0026cs=tinysrgb\u0026fit=crop\u0026h=627\u0026w=1200","tiny":"https://images.pexels.com/photos/3184423/pexels-photo-3184423.jpeg?auto=compress\u0026cs=tinysrgb\u0026dpr=1\u0026fit=crop\u0026h=200\u0026w=280"},"liked":false},{"id":1755683,"width":3024,"height":4032,"url":"https://www.pexels.com/photo/concrete-bridge-near-buildings-during-golden-hour-1755683/","photographer":"Guilherme
        Rossi","photographer_url":"https://www.pexels.com/@guiirossi","photographer_id":799589,"avg_color":"#425560","src":{"original":"https://images.pexels.com/photos/1755683/pexels-photo-1755683.jpeg","large2x":"https://images.pexels.com/photos/1755683/pexels-photo-1755683.jpeg?auto=compress\u0026cs=tinysrgb\u0026dpr=2\u0026h=650\u0026w=940","large":"https://images.pexels.com/photos/1755683/pexels-photo-1755683.jpeg?auto=compress\u0026cs=tinysrgb\u0026h=650\u0026w=940","medium":"https://images.pexels.com/photos/1755683/pexels-photo-1755683.jpeg?auto=compress\u0026cs=tinysrgb\u0026h=350","small":"https://images.pexels.com/photos/1755683/pexels-photo-1755683.jpeg?auto=compress\u0026cs=tinysrgb\u0026h=130","portrait":"https://images.pexels.com/photos/1755683/pexels-photo-1755683.jpeg?auto=compress\u0026cs=tinysrgb\u0026fit=crop\u0026h=1200\u0026w=800","landscape":"https://images.pexels.com/photos/1755683/pexels-photo-1755683.jpeg?auto=compress\u0026cs=tinysrgb\u0026fit=crop\u0026h=627\u0026w=1200","tiny":"https://images.pexels.com/photos/1755683/pexels-photo-1755683.jpeg?auto=compress\u0026cs=tinysrgb\u0026dpr=1\u0026fit=crop\u0026h=200\u0026w=280"},"liked":false},{"id":5326901,"width":4171,"height":5214,"url":"https://www.pexels.com/photo/magnificent-view-of-ocean-beneath-light-pink-sky-5326901/","photographer":"Ben
        Mack","photographer_url":"https://www.pexels.com/@ben-mack","photographer_id":3391146,"avg_color":"#C0C0C7","src":{"original":"https://images.pexels.com/photos/5326901/pexels-photo-5326901.jpeg","large2x":"https://images.pexels.com/photos/5326901/pexels-photo-5326901.jpeg?auto=compress\u0026cs=tinysrgb\u0026dpr=2\u0026h=650\u0026w=940","large":"https://images.pexels.com/photos/5326901/pexels-photo-5326901.jpeg?auto=compress\u0026cs=tinysrgb\u0026h=650\u0026w=940","medium":"https://images.pexels.com/photos/5326901/pexels-photo-5326901.jpeg?auto=compress\u0026cs=tinysrgb\u0026h=350","small":"https://images.pexels.com/photos/5326901/pexels-photo-5326901.jpeg?auto=compress\u0026cs=tinysrgb\u0026h=130","portrait":"https://images.pexels.com/photos/5326901/pexels-photo-5326901.jpeg?auto=compress\u0026cs=tinysrgb\u0026fit=crop\u0026h=1200\u0026w=800","landscape":"https://images.pexels.com/photos/5326901/pexels-photo-5326901.jpeg?auto=compress\u0026cs=tinysrgb\u0026fit=crop\u0026h=627\u0026w=1200","tiny":"https://images.pexels.com/photos/5326901/pexels-photo-5326901.jpeg?auto=compress\u0026cs=tinysrgb\u0026dpr=1\u0026fit=crop\u0026h=200\u0026w=280"},"liked":false},{"id":6195041,"width":3024,"height":4032,"url":"https://www.pexels.com/photo/clear-blue-sky-in-summer-day-6195041/","photographer":"Harry
        Cooke","photographer_url":"https://www.pexels.com/@harry-cooke","photographer_id":3933683,"avg_color":"#4481A1","src":{"original":"https://images.pexels.com/photos/6195041/pexels-photo-6195041.jpeg","large2x":"https://images.pexels.com/photos/6195041/pexels-photo-6195041.jpeg?auto=compress\u0026cs=tinysrgb\u0026dpr=2\u0026h=650\u0026w=940","large":"https://images.pexels.com/photos/6195041/pexels-photo-6195041.jpeg?auto=compress\u0026cs=tinysrgb\u0026h=650\u0026w=940","medium":"https://images.pexels.com/photos/6195041/pexels-photo-6195041.jpeg?auto=compress\u0026cs=tinysrgb\u0026h=350","small":"https://images.pexels.com/photos/6195041/pexels-photo-6195041.jpeg?auto=compress\u0026cs=tinysrgb\u0026h=130","portrait":"https://images.pexels.com/photos/6195041/pexels-photo-6195041.jpeg?auto=compress\u0026cs=tinysrgb\u0026fit=crop\u0026h=1200\u0026w=800","landscape":"https://images.pexels.com/photos/6195041/pexels-photo-6195041.jpeg?auto=compress\u0026cs=tinysrgb\u0026fit=crop\u0026h=627\u0026w=1200","tiny":"https://images.pexels.com/photos/6195041/pexels-photo-6195041.jpeg?auto=compress\u0026cs=tinysrgb\u0026dpr=1\u0026fit=crop\u0026h=200\u0026w=280"},"liked":false},{"id":6440273,"width":2523,"height":3203,"url":"https://www.pexels.com/photo/faceless-barefoot-female-traveler-on-embankment-against-sea-6440273/","photographer":"jasmin
        chew","photographer_url":"https://www.pexels.com/@jasmin-chew-3315593","photographer_id":3315593,"avg_color":"#ABACAA","src":{"original":"https://images.pexels.com/photos/6440273/pexels-photo-6440273.jpeg","large2x":"https://images.pexels.com/photos/6440273/pexels-photo-6440273.jpeg?auto=compress\u0026cs=tinysrgb\u0026dpr=2\u0026h=650\u0026w=940","large":"https://images.pexels.com/photos/6440273/pexels-photo-6440273.jpeg?auto=compress\u0026cs=tinysrgb\u0026h=650\u0026w=940","medium":"https://images.pexels.com/photos/6440273/pexels-photo-6440273.jpeg?auto=compress\u0026cs=tinysrgb\u0026h=350","small":"https://images.pexels.com/photos/6440273/pexels-photo-6440273.jpeg?auto=compress\u0026cs=tinysrgb\u0026h=130","portrait":"https://images.pexels.com/photos/6440273/pexels-photo-6440273.jpeg?auto=compress\u0026cs=tinysrgb\u0026fit=crop\u0026h=1200\u0026w=800","landscape":"https://images.pexels.com/photos/6440273/pexels-photo-6440273.jpeg?auto=compress\u0026cs=tinysrgb\u0026fit=crop\u0026h=627\u0026w=1200","tiny":"https://images.pexels.com/photos/6440273/pexels-photo-6440273.jpeg?auto=compress\u0026cs=tinysrgb\u0026dpr=1\u0026fit=crop\u0026h=200\u0026w=280"},"liked":false},{"id":313782,"width":5103,"height":3320,"url":"https://www.pexels.com/photo/high-angle-view-of-cityscape-against-cloudy-sky-313782/","photographer":"Quintin
        Gellar","photographer_url":"https://www.pexels.com/@quintingellar","photographer_id":99238,"avg_color":"#775551","src":{"original":"https://images.pexels.com/photos/313782/pexels-photo-313782.jpeg","large2x":"https://images.pexels.com/photos/313782/pexels-photo-313782.jpeg?auto=compress\u0026cs=tinysrgb\u0026dpr=2\u0026h=650\u0026w=940","large":"https://images.pexels.com/photos/313782/pexels-photo-313782.jpeg?auto=compress\u0026cs=tinysrgb\u0026h=650\u0026w=940","medium":"https://images.pexels.com/photos/313782/pexels-photo-313782.jpeg?auto=compress\u0026cs=tinysrgb\u0026h=350","small":"https://images.pexels.com/photos/313782/pexels-photo-313782.jpeg?auto=compress\u0026cs=tinysrgb\u0026h=130","portrait":"https://images.pexels.com/photos/313782/pexels-photo-313782.jpeg?auto=compress\u0026cs=tinysrgb\u0026fit=crop\u0026h=1200\u0026w=800","landscape":"https://images.pexels.com/photos/313782/pexels-photo-313782.jpeg?auto=compress\u0026cs=tinysrgb\u0026fit=crop\u0026h=627\u0026w=1200","tiny":"https://images.pexels.com/photos/313782/pexels-photo-313782.jpeg?auto=compress\u0026cs=tinysrgb\u0026dpr=1\u0026fit=crop\u0026h=200\u0026w=280"},"liked":false},{"id":2553419,"width":2213,"height":3319,"url":"https://www.pexels.com/photo/photo-of-cityscape-golden-hour-2553419/","photographer":"Guilherme
        Rossi","photographer_url":"https://www.pexels.com/@guiirossi","photographer_id":799589,"avg_color":"#6F8C8B","src":{"original":"https://images.pexels.com/photos/2553419/pexels-photo-2553419.jpeg","large2x":"https://images.pexels.com/photos/2553419/pexels-photo-2553419.jpeg?auto=compress\u0026cs=tinysrgb\u0026dpr=2\u0026h=650\u0026w=940","large":"https://images.pexels.com/photos/2553419/pexels-photo-2553419.jpeg?auto=compress\u0026cs=tinysrgb\u0026h=650\u0026w=940","medium":"https://images.pexels.com/photos/2553419/pexels-photo-2553419.jpeg?auto=compress\u0026cs=tinysrgb\u0026h=350","small":"https://images.pexels.com/photos/2553419/pexels-photo-2553419.jpeg?auto=compress\u0026cs=tinysrgb\u0026h=130","portrait":"https://images.pexels.com/photos/2553419/pexels-photo-2553419.jpeg?auto=compress\u0026cs=tinysrgb\u0026fit=crop\u0026h=1200\u0026w=800","landscape":"https://images.pexels.com/photos/2553419/pexels-photo-2553419.jpeg?auto=compress\u0026cs=tinysrgb\u0026fit=crop\u0026h=627\u0026w=1200","tiny":"https://images.pexels.com/photos/2553419/pexels-photo-2553419.jpeg?auto=compress\u0026cs=tinysrgb\u0026dpr=1\u0026fit=crop\u0026h=200\u0026w=280"},"liked":false}],"total_results":8000,"next_page":"https://api.pexels.com/v1/search/?page=2\u0026per_page=15\u0026query=denver%2Cco+skyline"}'
  recorded_at: Fri, 14 May 2021 18:37:39 GMT
recorded_with: VCR 6.0.0
